# 3ds Max Wavefront OBJ Exporter v0.97b - (c)2007 guruware
# File Created: 30.11.2013 22:21:51

mtllib Rock1.mtl

#
# object Box001
#

v  0.0000 0.0631 0.0647
v  0.2500 0.0000 0.0000
v  0.5000 0.0000 0.0000
v  0.7500 0.0000 0.0000
v  0.9470 0.0532 0.0000
v  0.0000 0.2500 0.0000
v  0.2500 0.2500 0.0000
v  0.5000 0.2500 0.0000
v  0.7500 0.2500 0.0000
v  1.0000 0.2500 0.0000
v  0.0000 0.5000 0.0000
v  0.2500 0.5000 0.0000
v  0.5575 0.6678 0.0000
v  0.7500 0.5000 0.0000
v  1.0000 0.5000 0.0000
v  0.0000 0.7500 0.0000
v  0.2500 0.7500 0.0000
v  0.5000 0.7500 0.0000
v  0.7500 0.7500 0.0000
v  1.0000 0.7500 0.0000
v  0.0523 0.9539 0.0000
v  0.2500 1.0000 0.0000
v  0.5000 1.0000 0.0000
v  0.7500 1.0000 0.0000
v  0.8973 0.8927 0.0000
v  0.2529 0.1958 1.0000
v  0.3784 0.1812 1.0000
v  0.5412 0.1383 1.0000
v  0.6299 0.1164 1.0000
v  0.7046 0.1871 1.0000
v  0.1491 0.3131 1.0647
v  0.3288 0.2500 1.0000
v  0.5000 0.2500 1.0000
v  0.6299 0.2500 1.0000
v  0.7717 0.2500 1.0000
v  0.2088 0.5141 1.0000
v  0.3288 0.5000 1.0416
v  0.5000 0.5000 1.0416
v  0.6299 0.5000 1.0000
v  0.7463 0.4726 1.0000
v  0.1491 0.7500 1.0000
v  0.3288 0.7500 1.0000
v  0.5000 0.7500 1.0000
v  0.5438 0.7885 1.0000
v  0.6690 0.6427 1.0000
v  0.2934 0.7447 1.0000
v  0.4046 0.7853 1.0000
v  0.5000 0.7886 1.0000
v  0.6528 0.8074 1.0000
v  0.7045 0.8276 1.0000
v  0.0000 0.0631 0.3147
v  0.2500 0.0000 0.2500
v  0.5000 0.0000 0.2500
v  0.7500 0.0000 0.2500
v  0.9470 0.0532 0.2500
v  1.0000 0.2500 0.2500
v  1.0000 0.5000 0.2500
v  1.0000 0.7500 0.2500
v  0.8973 0.8927 0.2500
v  0.7500 1.0000 0.2500
v  0.5000 1.0000 0.2500
v  0.2500 1.0000 0.2500
v  0.0523 0.9539 0.2500
v  0.0000 0.7500 0.2500
v  0.0000 0.5000 0.2500
v  0.0000 0.2500 0.2500
v  0.0702 0.0631 0.5647
v  0.2500 -0.0370 0.5000
v  0.5000 -0.0370 0.5000
v  0.7500 0.0000 0.5000
v  0.8859 0.0532 0.5000
v  0.9389 0.2500 0.5000
v  0.9575 0.5000 0.5000
v  0.9389 0.7500 0.5000
v  0.8363 0.8405 0.5000
v  0.7500 0.9478 0.5000
v  0.5000 1.0046 0.5000
v  0.2500 0.9478 0.5000
v  0.1225 0.9017 0.5000
v  0.0702 0.7500 0.5000
v  0.0336 0.5000 0.5000
v  0.0702 0.2500 0.5000
v  0.1450 0.1661 0.8147
v  0.2573 0.1276 0.7500
v  0.5000 0.0515 0.7500
v  0.7500 0.0515 0.7500
v  0.7853 0.1743 0.7500
v  0.8918 0.2500 0.7500
v  0.8918 0.5000 0.7500
v  0.8918 0.7500 0.7500
v  0.7891 0.8271 0.7500
v  0.7500 0.9344 0.7500
v  0.5000 0.9344 0.7500
v  0.2500 0.9344 0.7500
v  0.1628 0.8608 0.7500
v  0.0702 0.7500 0.7500
v  0.0702 0.5000 0.7500
v  0.0702 0.2500 0.7500
# 98 vertices

vn 0.0000 -0.3271 -0.9450
vn 0.0000 -0.3271 -0.9450
vn 0.0000 -0.3271 -0.9450
vn -0.2506 0.0000 -0.9681
vn -0.2506 0.0000 -0.9681
vn -0.2506 0.0000 -0.9681
vn 0.0000 0.0000 -1.0000
vn 0.0000 0.0000 -1.0000
vn 0.0000 0.0000 -1.0000
vn 0.0000 0.0000 -1.0000
vn 0.0000 0.0000 -1.0000
vn 0.0000 0.0000 -1.0000
vn 0.0000 0.0000 -1.0000
vn 0.0000 0.0000 -1.0000
vn 0.0000 0.0000 -1.0000
vn 0.0000 0.0000 -1.0000
vn 0.0000 0.0000 -1.0000
vn 0.0000 0.0000 -1.0000
vn 0.0000 0.0000 -1.0000
vn 0.0000 0.0000 -1.0000
vn 0.0000 0.0000 -1.0000
vn 0.0000 0.0000 -1.0000
vn 0.0000 0.0000 -1.0000
vn 0.0000 0.0000 -1.0000
vn 0.0000 0.0000 -1.0000
vn 0.0000 0.0000 -1.0000
vn 0.0000 0.0000 -1.0000
vn 0.0000 0.0000 -1.0000
vn 0.0000 0.0000 -1.0000
vn 0.0000 0.0000 -1.0000
vn 0.0000 0.0000 -1.0000
vn 0.0000 0.0000 -1.0000
vn 0.0000 0.0000 -1.0000
vn 0.0000 0.0000 -1.0000
vn 0.0000 0.0000 -1.0000
vn 0.0000 0.0000 -1.0000
vn 0.0000 0.0000 -1.0000
vn 0.0000 0.0000 -1.0000
vn 0.0000 0.0000 -1.0000
vn 0.0000 0.0000 -1.0000
vn 0.0000 0.0000 -1.0000
vn 0.0000 0.0000 -1.0000
vn 0.0000 0.0000 -1.0000
vn 0.0000 0.0000 -1.0000
vn 0.0000 0.0000 -1.0000
vn 0.0000 0.0000 -1.0000
vn 0.0000 0.0000 -1.0000
vn 0.0000 0.0000 -1.0000
vn 0.0000 0.0000 -1.0000
vn 0.0000 0.0000 -1.0000
vn 0.0000 0.0000 -1.0000
vn 0.0000 0.0000 -1.0000
vn 0.0000 0.0000 -1.0000
vn 0.0000 0.0000 -1.0000
vn 0.0000 0.0000 -1.0000
vn 0.0000 0.0000 -1.0000
vn 0.0000 0.0000 -1.0000
vn 0.0000 0.0000 -1.0000
vn 0.0000 0.0000 -1.0000
vn 0.0000 0.0000 -1.0000
vn 0.0000 0.0000 -1.0000
vn 0.0000 0.0000 -1.0000
vn 0.0000 0.0000 -1.0000
vn 0.0000 0.0000 -1.0000
vn 0.0000 0.0000 -1.0000
vn 0.0000 0.0000 -1.0000
vn 0.0000 0.0000 -1.0000
vn 0.0000 0.0000 -1.0000
vn 0.0000 0.0000 -1.0000
vn 0.0000 0.0000 -1.0000
vn 0.0000 0.0000 -1.0000
vn 0.0000 0.0000 -1.0000
vn 0.0000 0.0000 -1.0000
vn 0.0000 0.0000 -1.0000
vn 0.0000 0.0000 -1.0000
vn 0.0000 0.0000 -1.0000
vn 0.0000 0.0000 -1.0000
vn 0.0000 0.0000 -1.0000
vn 0.0000 0.0000 -1.0000
vn 0.0000 0.0000 -1.0000
vn 0.0000 0.0000 -1.0000
vn 0.0000 0.0000 -1.0000
vn 0.0000 0.0000 -1.0000
vn 0.0000 0.0000 -1.0000
vn 0.0000 0.0000 -1.0000
vn 0.0000 0.0000 -1.0000
vn 0.0000 0.0000 -1.0000
vn 0.0000 0.0000 -1.0000
vn 0.0000 0.0000 -1.0000
vn 0.0000 0.0000 -1.0000
vn 0.0000 0.0000 -1.0000
vn 0.0000 0.0000 -1.0000
vn 0.0000 0.0000 -1.0000
vn 0.0000 0.0000 -1.0000
vn 0.0000 0.0000 -1.0000
vn 0.0000 0.0000 -1.0000
vn 0.0000 0.0000 1.0000
vn 0.0000 0.0000 1.0000
vn 0.0000 0.0000 1.0000
vn 0.2228 -0.3124 0.9235
vn 0.2228 -0.3124 0.9235
vn 0.2228 -0.3124 0.9235
vn 0.0000 0.0000 1.0000
vn 0.0000 0.0000 1.0000
vn 0.0000 0.0000 1.0000
vn 0.0000 0.0000 1.0000
vn 0.0000 0.0000 1.0000
vn 0.0000 0.0000 1.0000
vn 0.0000 0.0000 1.0000
vn 0.0000 0.0000 1.0000
vn 0.0000 0.0000 1.0000
vn 0.0000 0.0000 1.0000
vn 0.0000 0.0000 1.0000
vn 0.0000 0.0000 1.0000
vn 0.0000 0.0000 -1.0000
vn 0.0000 0.0000 -1.0000
vn 0.0000 0.0000 -1.0000
vn 0.0000 0.0000 1.0000
vn 0.0000 0.0000 1.0000
vn 0.0000 0.0000 1.0000
vn 0.2851 -0.1573 0.9455
vn 0.2851 -0.1573 0.9455
vn 0.2851 -0.1573 0.9455
vn -0.2661 0.3662 0.8917
vn -0.2661 0.3662 0.8917
vn -0.2661 0.3662 0.8917
vn 0.0000 -0.1641 0.9864
vn 0.0000 -0.1641 0.9864
vn 0.0000 -0.1641 0.9864
vn 0.0000 -0.1641 0.9864
vn 0.0000 -0.1641 0.9864
vn 0.0000 -0.1641 0.9864
vn 0.0000 0.0000 1.0000
vn 0.0000 0.0000 1.0000
vn 0.0000 0.0000 1.0000
vn 0.3011 -0.1565 0.9407
vn 0.3011 -0.1565 0.9407
vn 0.3011 -0.1565 0.9407
vn 0.0000 0.0000 1.0000
vn 0.0000 0.0000 1.0000
vn 0.0000 0.0000 1.0000
vn 0.0000 0.0000 1.0000
vn 0.0000 0.0000 1.0000
vn 0.0000 0.0000 1.0000
vn -0.3070 0.1562 0.9388
vn -0.3070 0.1562 0.9388
vn -0.3070 0.1562 0.9388
vn 0.0000 0.0000 1.0000
vn 0.0000 0.0000 1.0000
vn 0.0000 0.0000 1.0000
vn 0.0000 0.1641 0.9864
vn 0.0000 0.1641 0.9864
vn 0.0000 0.1641 0.9864
vn 0.0000 0.1641 0.9864
vn 0.0000 0.1641 0.9864
vn 0.0000 0.1641 0.9864
vn 0.3036 0.0906 0.9485
vn 0.3036 0.0906 0.9485
vn 0.3036 0.0906 0.9485
vn -0.1428 0.1624 0.9763
vn -0.1428 0.1624 0.9763
vn -0.1428 0.1624 0.9763
vn 0.0000 0.0000 1.0000
vn 0.0000 0.0000 1.0000
vn 0.0000 0.0000 1.0000
vn 0.0000 0.0000 1.0000
vn 0.0000 0.0000 1.0000
vn 0.0000 0.0000 1.0000
vn 0.0000 0.0000 1.0000
vn 0.0000 0.0000 1.0000
vn 0.0000 0.0000 1.0000
vn 0.0000 0.0000 -1.0000
vn 0.0000 0.0000 -1.0000
vn 0.0000 0.0000 -1.0000
vn 0.0000 0.0000 1.0000
vn 0.0000 0.0000 1.0000
vn 0.0000 0.0000 1.0000
vn 0.0000 0.0000 1.0000
vn 0.0000 0.0000 1.0000
vn 0.0000 0.0000 1.0000
vn 0.0000 0.0000 -1.0000
vn 0.0000 0.0000 -1.0000
vn 0.0000 0.0000 -1.0000
vn 0.0000 0.0000 1.0000
vn 0.0000 0.0000 1.0000
vn 0.0000 0.0000 1.0000
vn 0.0000 0.0000 1.0000
vn 0.0000 0.0000 1.0000
vn 0.0000 0.0000 1.0000
vn 0.0000 0.0000 -1.0000
vn 0.0000 0.0000 -1.0000
vn 0.0000 0.0000 -1.0000
vn -0.2447 -0.9696 0.0000
vn -0.2447 -0.9696 0.0000
vn -0.2447 -0.9696 0.0000
vn -0.2447 -0.9696 0.0000
vn -0.2447 -0.9696 0.0000
vn -0.2447 -0.9696 0.0000
vn 0.0000 -1.0000 0.0000
vn 0.0000 -1.0000 0.0000
vn 0.0000 -1.0000 0.0000
vn 0.0000 -1.0000 0.0000
vn 0.0000 -1.0000 0.0000
vn 0.0000 -1.0000 0.0000
vn 0.0000 -1.0000 0.0000
vn 0.0000 -1.0000 0.0000
vn 0.0000 -1.0000 0.0000
vn 0.0000 -1.0000 0.0000
vn 0.0000 -1.0000 0.0000
vn 0.0000 -1.0000 0.0000
vn 0.2606 -0.9654 0.0000
vn 0.2606 -0.9654 0.0000
vn 0.2606 -0.9654 0.0000
vn 0.2606 -0.9654 0.0000
vn 0.2606 -0.9654 0.0000
vn 0.2606 -0.9654 0.0000
vn -0.2763 -0.9507 -0.1406
vn -0.2763 -0.9507 -0.1406
vn -0.2763 -0.9507 -0.1406
vn -0.4476 -0.8854 0.1258
vn -0.4476 -0.8854 0.1258
vn -0.4476 -0.8854 0.1258
vn 0.0000 -0.9892 -0.1463
vn 0.0000 -0.9892 -0.1463
vn 0.0000 -0.9892 -0.1463
vn 0.0000 -0.9892 -0.1463
vn 0.0000 -0.9892 -0.1463
vn 0.0000 -0.9892 -0.1463
vn 0.0000 -1.0000 0.0000
vn 0.0000 -1.0000 0.0000
vn 0.0000 -1.0000 0.0000
vn 0.1447 -0.9788 -0.1447
vn 0.1447 -0.9788 -0.1447
vn 0.1447 -0.9788 -0.1447
vn 0.2601 -0.9635 0.0635
vn 0.2601 -0.9635 0.0635
vn 0.2601 -0.9635 0.0635
vn 0.3643 -0.9313 0.0000
vn 0.3643 -0.9313 0.0000
vn 0.3643 -0.9313 0.0000
vn -0.2545 -0.8044 0.5369
vn -0.2545 -0.8044 0.5369
vn -0.2545 -0.8044 0.5369
vn -0.0821 -0.9126 0.4006
vn -0.0821 -0.9126 0.4006
vn -0.0821 -0.9126 0.4006
vn 0.0000 -0.9427 0.3338
vn 0.0000 -0.9427 0.3338
vn 0.0000 -0.9427 0.3338
vn -0.2522 -0.8049 0.5372
vn -0.2522 -0.8049 0.5372
vn -0.2522 -0.8049 0.5372
vn 0.1433 -0.9693 0.1999
vn 0.1433 -0.9693 0.1999
vn 0.1433 -0.9693 0.1999
vn 0.0000 -0.9427 0.3338
vn 0.0000 -0.9427 0.3338
vn 0.0000 -0.9427 0.3338
vn 0.3127 -0.7994 0.5131
vn 0.3127 -0.7994 0.5131
vn 0.3127 -0.7994 0.5131
vn 0.9594 -0.2761 0.0569
vn 0.9594 -0.2761 0.0569
vn 0.9594 -0.2761 0.0569
vn -0.1622 -0.9458 0.2813
vn -0.1622 -0.9458 0.2813
vn -0.1622 -0.9458 0.2813
vn -0.1133 -0.9686 0.2214
vn -0.1133 -0.9686 0.2214
vn -0.1133 -0.9686 0.2214
vn -0.2794 -0.8919 0.3556
vn -0.2794 -0.8919 0.3556
vn -0.2794 -0.8919 0.3556
vn -0.2417 -0.9182 0.3139
vn -0.2417 -0.9182 0.3139
vn -0.2417 -0.9182 0.3139
vn 0.0000 -0.9679 0.2512
vn 0.0000 -0.9679 0.2512
vn 0.0000 -0.9679 0.2512
vn -0.2243 -0.9086 0.3523
vn -0.2243 -0.9086 0.3523
vn -0.2243 -0.9086 0.3523
vn 0.9140 -0.2631 0.3088
vn 0.9140 -0.2631 0.3088
vn 0.9140 -0.2631 0.3088
vn 0.6102 -0.6447 0.4604
vn 0.6102 -0.6447 0.4604
vn 0.6102 -0.6447 0.4604
vn 0.9656 -0.2601 0.0000
vn 0.9656 -0.2601 0.0000
vn 0.9656 -0.2601 0.0000
vn 0.9656 -0.2601 0.0000
vn 0.9656 -0.2601 0.0000
vn 0.9656 -0.2601 0.0000
vn 1.0000 0.0000 0.0000
vn 1.0000 0.0000 0.0000
vn 1.0000 0.0000 0.0000
vn 1.0000 0.0000 0.0000
vn 1.0000 0.0000 0.0000
vn 1.0000 0.0000 0.0000
vn 1.0000 0.0000 0.0000
vn 1.0000 0.0000 0.0000
vn 1.0000 0.0000 0.0000
vn 1.0000 0.0000 0.0000
vn 1.0000 0.0000 0.0000
vn 1.0000 0.0000 0.0000
vn 0.8117 0.5841 0.0000
vn 0.8117 0.5841 0.0000
vn 0.8117 0.5841 0.0000
vn 0.8117 0.5841 0.0000
vn 0.8117 0.5841 0.0000
vn 0.8117 0.5841 0.0000
vn 0.9398 -0.2532 0.2295
vn 0.9398 -0.2532 0.2295
vn 0.9398 -0.2532 0.2295
vn 0.9398 -0.2532 0.2295
vn 0.9398 -0.2532 0.2295
vn 0.9398 -0.2532 0.2295
vn 0.9858 0.0000 0.1677
vn 0.9858 0.0000 0.1677
vn 0.9858 0.0000 0.1677
vn 0.9689 -0.0718 0.2366
vn 0.9689 -0.0718 0.2366
vn 0.9689 -0.0718 0.2366
vn 0.9714 0.0000 0.2372
vn 0.9714 0.0000 0.2372
vn 0.9714 0.0000 0.2372
vn 0.9832 0.0729 0.1673
vn 0.9832 0.0729 0.1673
vn 0.9832 0.0729 0.1673
vn 0.7730 0.5563 0.3050
vn 0.7730 0.5563 0.3050
vn 0.7730 0.5563 0.3050
vn 0.6527 0.7407 0.1594
vn 0.6527 0.7407 0.1594
vn 0.6527 0.7407 0.1594
vn 0.9499 -0.2559 0.1793
vn 0.9499 -0.2559 0.1793
vn 0.9499 -0.2559 0.1793
vn 0.4909 -0.6901 0.5318
vn 0.4909 -0.6901 0.5318
vn 0.4909 -0.6901 0.5318
vn 0.9647 -0.0715 0.2535
vn 0.9647 -0.0715 0.2535
vn 0.9647 -0.0715 0.2535
vn 0.9827 0.0000 0.1854
vn 0.9827 0.0000 0.1854
vn 0.9827 0.0000 0.1854
vn 0.9801 0.0726 0.1849
vn 0.9801 0.0726 0.1849
vn 0.9801 0.0726 0.1849
vn 0.9672 0.0000 0.2542
vn 0.9672 0.0000 0.2542
vn 0.9672 0.0000 0.2542
vn 0.6523 0.7403 0.1628
vn 0.6523 0.7403 0.1628
vn 0.6523 0.7403 0.1628
vn 0.5965 0.7947 0.1126
vn 0.5965 0.7947 0.1126
vn 0.5965 0.7947 0.1126
vn 0.5584 -0.7850 0.2683
vn 0.5584 -0.7850 0.2683
vn 0.5584 -0.7850 0.2683
vn 0.6622 -0.7064 0.2501
vn 0.6622 -0.7064 0.2501
vn 0.6622 -0.7064 0.2501
vn 0.8644 0.0000 0.5028
vn 0.8644 0.0000 0.5028
vn 0.8644 0.0000 0.5028
vn 0.8967 0.1020 0.4308
vn 0.8967 0.1020 0.4308
vn 0.8967 0.1020 0.4308
vn 0.7466 0.0000 0.6653
vn 0.7466 0.0000 0.6653
vn 0.7466 0.0000 0.6653
vn 0.7892 0.3589 0.4984
vn 0.7892 0.3589 0.4984
vn 0.7892 0.3589 0.4984
vn 0.5885 0.7840 0.1974
vn 0.5885 0.7840 0.1974
vn 0.5885 0.7840 0.1974
vn 0.7690 -0.1478 0.6219
vn 0.7690 -0.1478 0.6219
vn 0.7690 -0.1478 0.6219
vn 0.5888 0.8083 0.0000
vn 0.5888 0.8083 0.0000
vn 0.5888 0.8083 0.0000
vn 0.5888 0.8083 0.0000
vn 0.5888 0.8083 0.0000
vn 0.5888 0.8083 0.0000
vn 0.0000 1.0000 0.0000
vn 0.0000 1.0000 0.0000
vn 0.0000 1.0000 0.0000
vn 0.0000 1.0000 0.0000
vn 0.0000 1.0000 0.0000
vn 0.0000 1.0000 0.0000
vn 0.0000 1.0000 0.0000
vn 0.0000 1.0000 0.0000
vn 0.0000 1.0000 0.0000
vn 0.0000 1.0000 0.0000
vn 0.0000 1.0000 0.0000
vn 0.0000 1.0000 0.0000
vn -0.2270 0.9739 0.0000
vn -0.2270 0.9739 0.0000
vn -0.2270 0.9739 0.0000
vn -0.2270 0.9739 0.0000
vn -0.2270 0.9739 0.0000
vn -0.2270 0.9739 0.0000
vn 0.5806 0.7970 0.1664
vn 0.5806 0.7970 0.1664
vn 0.5806 0.7970 0.1664
vn 0.7421 0.5965 0.3058
vn 0.7421 0.5965 0.3058
vn 0.7421 0.5965 0.3058
vn 0.0000 0.9998 -0.0186
vn 0.0000 0.9998 -0.0186
vn 0.0000 0.9998 -0.0186
vn 0.2173 0.9555 0.1995
vn 0.2173 0.9555 0.1995
vn 0.2173 0.9555 0.1995
vn 0.0000 0.9789 0.2044
vn 0.0000 0.9789 0.2044
vn 0.0000 0.9789 0.2044
vn -0.2217 0.9749 -0.0181
vn -0.2217 0.9749 -0.0181
vn -0.2217 0.9749 -0.0181
vn -0.2193 0.9409 0.2581
vn -0.2193 0.9409 0.2581
vn -0.2193 0.9409 0.2581
vn -0.3337 0.9228 0.1927
vn -0.3337 0.9228 0.1927
vn -0.3337 0.9228 0.1927
vn 0.7790 0.6262 0.0336
vn 0.7790 0.6262 0.0336
vn 0.7790 0.6262 0.0336
vn 0.9221 0.3359 0.1920
vn 0.9221 0.3359 0.1920
vn 0.9221 0.3359 0.1920
vn 0.2139 0.9404 0.2643
vn 0.2139 0.9404 0.2643
vn 0.2139 0.9404 0.2643
vn 0.0000 0.9986 0.0535
vn 0.0000 0.9986 0.0535
vn 0.0000 0.9986 0.0535
vn -0.2215 0.9738 0.0522
vn -0.2215 0.9738 0.0522
vn -0.2215 0.9738 0.0522
vn 0.0000 0.9627 0.2706
vn 0.0000 0.9627 0.2706
vn 0.0000 0.9627 0.2706
vn -0.3329 0.9206 0.2041
vn -0.3329 0.9206 0.2041
vn -0.3329 0.9206 0.2041
vn -0.6443 0.7637 0.0409
vn -0.6443 0.7637 0.0409
vn -0.6443 0.7637 0.0409
vn 0.8270 0.3012 0.4746
vn 0.8270 0.3012 0.4746
vn 0.8270 0.3012 0.4746
vn -0.3612 0.9242 -0.1241
vn -0.3612 0.9242 -0.1241
vn -0.3612 0.9242 -0.1241
vn 0.0000 0.8638 0.5038
vn 0.0000 0.8638 0.5038
vn 0.0000 0.8638 0.5038
vn -0.1110 0.9028 0.4155
vn -0.1110 0.9028 0.4155
vn -0.1110 0.9028 0.4155
vn 0.0000 0.8589 0.5122
vn 0.0000 0.8589 0.5122
vn 0.0000 0.8589 0.5122
vn -0.0297 0.8634 0.5036
vn -0.0297 0.8634 0.5036
vn -0.0297 0.8634 0.5036
vn -0.5302 0.6285 0.5691
vn -0.5302 0.6285 0.5691
vn -0.5302 0.6285 0.5691
vn -0.2717 0.7433 0.6113
vn -0.2717 0.7433 0.6113
vn -0.2717 0.7433 0.6113
vn -0.9687 0.2484 0.0000
vn -0.9687 0.2484 0.0000
vn -0.9687 0.2484 0.0000
vn -0.9687 0.2484 0.0000
vn -0.9687 0.2484 0.0000
vn -0.9687 0.2484 0.0000
vn -1.0000 0.0000 0.0000
vn -1.0000 0.0000 0.0000
vn -1.0000 0.0000 0.0000
vn -1.0000 0.0000 0.0000
vn -1.0000 0.0000 0.0000
vn -1.0000 0.0000 0.0000
vn -1.0000 0.0000 0.0000
vn -1.0000 0.0000 0.0000
vn -1.0000 0.0000 0.0000
vn -1.0000 0.0000 0.0000
vn -1.0000 0.0000 0.0000
vn -1.0000 0.0000 0.0000
vn -1.0000 0.0000 0.0000
vn -1.0000 0.0000 0.0000
vn -1.0000 0.0000 0.0000
vn -1.0000 0.0000 0.0000
vn -1.0000 0.0000 0.0000
vn -1.0000 0.0000 0.0000
vn -0.9347 0.2397 0.2626
vn -0.9347 0.2397 0.2626
vn -0.9347 0.2397 0.2626
vn -0.8968 0.3092 0.3165
vn -0.8968 0.3092 0.3165
vn -0.8968 0.3092 0.3165
vn -0.9911 0.0000 0.1332
vn -0.9911 0.0000 0.1332
vn -0.9911 0.0000 0.1332
vn -0.9533 0.1397 0.2678
vn -0.9533 0.1397 0.2678
vn -0.9533 0.1397 0.2678
vn -0.9627 0.0000 0.2705
vn -0.9627 0.0000 0.2705
vn -0.9627 0.0000 0.2705
vn -0.9808 -0.1438 0.1318
vn -0.9808 -0.1438 0.1318
vn -0.9808 -0.1438 0.1318
vn -0.9585 0.0932 0.2693
vn -0.9585 0.0932 0.2693
vn -0.9585 0.0932 0.2693
vn -0.9585 0.0932 0.2693
vn -0.9585 0.0932 0.2693
vn -0.9585 0.0932 0.2693
vn -0.9454 0.3259 0.0000
vn -0.9454 0.3259 0.0000
vn -0.9454 0.3259 0.0000
vn -0.7482 0.6249 0.2227
vn -0.7482 0.6249 0.2227
vn -0.7482 0.6249 0.2227
vn -0.9792 0.1435 0.1435
vn -0.9792 0.1435 0.1435
vn -0.9792 0.1435 0.1435
vn -1.0000 0.0000 0.0000
vn -1.0000 0.0000 0.0000
vn -1.0000 0.0000 0.0000
vn -0.9894 -0.1450 0.0000
vn -0.9894 -0.1450 0.0000
vn -0.9894 -0.1450 0.0000
vn -0.9894 0.0000 0.1450
vn -0.9894 0.0000 0.1450
vn -0.9894 0.0000 0.1450
vn -0.9638 0.0873 0.2521
vn -0.9638 0.0873 0.2521
vn -0.9638 0.0873 0.2521
vn -0.7468 -0.6651 0.0000
vn -0.7468 -0.6651 0.0000
vn -0.7468 -0.6651 0.0000
vn -0.7460 0.6230 0.2352
vn -0.7460 0.6230 0.2352
vn -0.7460 0.6230 0.2352
vn 0.0338 0.9130 0.4067
vn 0.0338 0.9130 0.4067
vn 0.0338 0.9130 0.4067
vn -0.8746 0.0000 0.4848
vn -0.8746 0.0000 0.4848
vn -0.8746 0.0000 0.4848
vn -0.9270 -0.2348 0.2923
vn -0.9270 -0.2348 0.2923
vn -0.9270 -0.2348 0.2923
vn -0.9700 0.0000 0.2430
vn -0.9700 0.0000 0.2430
vn -0.9700 0.0000 0.2430
vn -0.8172 0.3820 0.4315
vn -0.8172 0.3820 0.4315
vn -0.8172 0.3820 0.4315
vn -0.7978 -0.3134 0.5150
vn -0.7978 -0.3134 0.5150
vn -0.7978 -0.3134 0.5150
vn -0.6254 -0.7199 0.3010
vn -0.6254 -0.7199 0.3010
vn -0.6254 -0.7199 0.3010
# 576 vertex normals

vt 0.0000 0.0000 0.0000
vt 0.2500 0.0000 0.0000
vt 0.5000 0.0000 0.0000
vt 0.7500 0.0000 0.0000
vt 1.0000 0.0000 0.0000
vt 0.0000 0.2500 0.0000
vt 0.2500 0.2500 0.0000
vt 0.5000 0.2500 0.0000
vt 0.7500 0.2500 0.0000
vt 1.0000 0.2500 0.0000
vt 0.0000 0.5000 0.0000
vt 0.2500 0.5000 0.0000
vt 0.5000 0.5000 0.0000
vt 0.7500 0.5000 0.0000
vt 1.0000 0.5000 0.0000
vt 0.0000 0.7500 0.0000
vt 0.2500 0.7500 0.0000
vt 0.5000 0.7500 0.0000
vt 0.7500 0.7500 0.0000
vt 1.0000 0.7500 0.0000
vt 0.0000 1.0000 0.0000
vt 0.2500 1.0000 0.0000
vt 0.5000 1.0000 0.0000
vt 0.7500 1.0000 0.0000
vt 1.0000 1.0000 0.0000
vt 0.0000 0.0000 0.0000
vt 0.2500 0.0000 0.0000
vt 0.5000 0.0000 0.0000
vt 0.7500 0.0000 0.0000
vt 1.0000 0.0000 0.0000
vt 0.0000 0.2500 0.0000
vt 0.2500 0.2500 0.0000
vt 0.5000 0.2500 0.0000
vt 0.7500 0.2500 0.0000
vt 1.0000 0.2500 0.0000
vt 0.0000 0.5000 0.0000
vt 0.2500 0.5000 0.0000
vt 0.5000 0.5000 0.0000
vt 0.7500 0.5000 0.0000
vt 1.0000 0.5000 0.0000
vt 0.0000 0.7500 0.0000
vt 0.2500 0.7500 0.0000
vt 0.5000 0.7500 0.0000
vt 0.7500 0.7500 0.0000
vt 1.0000 0.7500 0.0000
vt 0.0000 1.0000 0.0000
vt 0.2500 1.0000 0.0000
vt 0.5000 1.0000 0.0000
vt 0.7500 1.0000 0.0000
vt 1.0000 1.0000 0.0000
vt 0.0000 0.0000 0.0000
vt 0.2500 0.0000 0.0000
vt 0.5000 0.0000 0.0000
vt 0.7500 0.0000 0.0000
vt 1.0000 0.0000 0.0000
vt 0.0000 0.2500 0.0000
vt 0.2500 0.2500 0.0000
vt 0.5000 0.2500 0.0000
vt 0.7500 0.2500 0.0000
vt 1.0000 0.2500 0.0000
vt 0.0000 0.5000 0.0000
vt 0.2500 0.5000 0.0000
vt 0.5000 0.5000 0.0000
vt 0.7500 0.5000 0.0000
vt 1.0000 0.5000 0.0000
vt 0.0000 0.7500 0.0000
vt 0.2500 0.7500 0.0000
vt 0.5000 0.7500 0.0000
vt 0.7500 0.7500 0.0000
vt 1.0000 0.7500 0.0000
vt 0.0000 1.0000 0.0000
vt 0.2500 1.0000 0.0000
vt 0.5000 1.0000 0.0000
vt 0.7500 1.0000 0.0000
vt 1.0000 1.0000 0.0000
# 75 texture coords

g Box001
usemtl rock
f 1/55/1 6/60/2 7/59/3 
f 7/59/4 2/54/5 1/55/6 
f 2/54/7 7/59/8 8/58/9 
f 8/58/10 3/53/11 2/54/12 
f 3/53/13 8/58/14 9/57/15 
f 9/57/16 4/52/17 3/53/18 
f 4/52/19 9/57/20 10/56/21 
f 10/56/22 5/51/23 4/52/24 
f 6/60/25 11/65/26 12/64/27 
f 12/64/28 7/59/29 6/60/30 
f 7/59/31 12/64/32 13/63/33 
f 13/63/34 8/58/35 7/59/36 
f 8/58/37 13/63/38 14/62/39 
f 14/62/40 9/57/41 8/58/42 
f 9/57/43 14/62/44 15/61/45 
f 15/61/46 10/56/47 9/57/48 
f 11/65/49 16/70/50 17/69/51 
f 17/69/52 12/64/53 11/65/54 
f 12/64/55 17/69/56 18/68/57 
f 18/68/58 13/63/59 12/64/60 
f 13/63/61 18/68/62 19/67/63 
f 19/67/64 14/62/65 13/63/66 
f 14/62/67 19/67/68 20/66/69 
f 20/66/70 15/61/71 14/62/72 
f 16/70/73 21/75/74 22/74/75 
f 22/74/76 17/69/77 16/70/78 
f 17/69/79 22/74/80 23/73/81 
f 23/73/82 18/68/83 17/69/84 
f 18/68/85 23/73/86 24/72/87 
f 24/72/88 19/67/89 18/68/90 
f 19/67/91 24/72/92 25/71/93 
f 25/71/94 20/66/95 19/67/96 
f 26/51/97 27/52/98 32/57/99 
f 32/57/100 31/56/101 26/51/102 
f 27/52/103 28/53/104 33/58/105 
f 33/58/106 32/57/107 27/52/108 
f 28/53/109 29/54/110 34/59/111 
f 34/59/112 33/58/113 28/53/114 
f 29/54/115 30/55/116 35/60/117 
f 35/60/118 34/59/119 29/54/120 
f 31/56/121 32/57/122 37/62/123 
f 37/62/124 36/61/125 31/56/126 
f 32/57/127 33/58/128 38/63/129 
f 38/63/130 37/62/131 32/57/132 
f 33/58/133 34/59/134 39/64/135 
f 39/64/136 38/63/137 33/58/138 
f 34/59/139 35/60/140 40/65/141 
f 40/65/142 39/64/143 34/59/144 
f 36/61/145 37/62/146 42/67/147 
f 42/67/148 41/66/149 36/61/150 
f 37/62/151 38/63/152 43/68/153 
f 43/68/154 42/67/155 37/62/156 
f 38/63/157 39/64/158 44/69/159 
f 44/69/160 43/68/161 38/63/162 
f 39/64/163 40/65/164 45/70/165 
f 45/70/166 44/69/167 39/64/168 
f 41/66/169 42/67/170 47/72/171 
f 47/72/172 46/71/173 41/66/174 
f 42/67/175 43/68/176 48/73/177 
f 48/73/178 47/72/179 42/67/180 
f 43/68/181 44/69/182 49/74/183 
f 49/74/184 48/73/185 43/68/186 
f 44/69/187 45/70/188 50/75/189 
f 50/75/190 49/74/191 44/69/192 
f 1/26/193 2/27/194 52/32/195 
f 52/32/196 51/31/197 1/26/198 
f 2/27/199 3/28/200 53/33/201 
f 53/33/202 52/32/203 2/27/204 
f 3/28/205 4/29/206 54/34/207 
f 54/34/208 53/33/209 3/28/210 
f 4/29/211 5/30/212 55/35/213 
f 55/35/214 54/34/215 4/29/216 
f 51/31/217 52/32/218 68/37/219 
f 68/37/220 67/36/221 51/31/222 
f 52/32/223 53/33/224 69/38/225 
f 69/38/226 68/37/227 52/32/228 
f 53/33/229 54/34/230 70/39/231 
f 70/39/232 69/38/233 53/33/234 
f 54/34/235 55/35/236 71/40/237 
f 71/40/238 70/39/239 54/34/240 
f 67/36/241 68/37/242 84/42/243 
f 84/42/244 83/41/245 67/36/246 
f 68/37/247 69/38/248 85/43/249 
f 85/43/250 84/42/251 68/37/252 
f 69/38/253 70/39/254 86/44/255 
f 86/44/256 85/43/257 69/38/258 
f 70/39/259 71/40/260 87/45/261 
f 87/45/262 86/44/263 70/39/264 
f 83/41/265 84/42/266 27/47/267 
f 27/47/268 26/46/269 83/41/270 
f 84/42/271 85/43/272 28/48/273 
f 28/48/274 27/47/275 84/42/276 
f 85/43/277 86/44/278 29/49/279 
f 29/49/280 28/48/281 85/43/282 
f 86/44/283 87/45/284 30/50/285 
f 30/50/286 29/49/287 86/44/288 
f 5/1/289 10/2/290 56/7/291 
f 56/7/292 55/6/293 5/1/294 
f 10/2/295 15/3/296 57/8/297 
f 57/8/298 56/7/299 10/2/300 
f 15/3/301 20/4/302 58/9/303 
f 58/9/304 57/8/305 15/3/306 
f 20/4/307 25/5/308 59/10/309 
f 59/10/310 58/9/311 20/4/312 
f 55/6/313 56/7/314 72/12/315 
f 72/12/316 71/11/317 55/6/318 
f 56/7/319 57/8/320 73/13/321 
f 73/13/322 72/12/323 56/7/324 
f 57/8/325 58/9/326 74/14/327 
f 74/14/328 73/13/329 57/8/330 
f 58/9/331 59/10/332 75/15/333 
f 75/15/334 74/14/335 58/9/336 
f 71/11/337 72/12/338 88/17/339 
f 88/17/340 87/16/341 71/11/342 
f 72/12/343 73/13/344 89/18/345 
f 89/18/346 88/17/347 72/12/348 
f 73/13/349 74/14/350 90/19/351 
f 90/19/352 89/18/353 73/13/354 
f 74/14/355 75/15/356 91/20/357 
f 91/20/358 90/19/359 74/14/360 
f 87/16/361 88/17/362 35/22/363 
f 35/22/364 30/21/365 87/16/366 
f 88/17/367 89/18/368 40/23/369 
f 40/23/370 35/22/371 88/17/372 
f 89/18/373 90/19/374 45/24/375 
f 45/24/376 40/23/377 89/18/378 
f 90/19/379 91/20/380 50/25/381 
f 50/25/382 45/24/383 90/19/384 
f 25/26/385 24/27/386 60/32/387 
f 60/32/388 59/31/389 25/26/390 
f 24/27/391 23/28/392 61/33/393 
f 61/33/394 60/32/395 24/27/396 
f 23/28/397 22/29/398 62/34/399 
f 62/34/400 61/33/401 23/28/402 
f 22/29/403 21/30/404 63/35/405 
f 63/35/406 62/34/407 22/29/408 
f 59/31/409 60/32/410 76/37/411 
f 76/37/412 75/36/413 59/31/414 
f 60/32/415 61/33/416 77/38/417 
f 77/38/418 76/37/419 60/32/420 
f 61/33/421 62/34/422 78/39/423 
f 78/39/424 77/38/425 61/33/426 
f 62/34/427 63/35/428 79/40/429 
f 79/40/430 78/39/431 62/34/432 
f 75/36/433 76/37/434 92/42/435 
f 92/42/436 91/41/437 75/36/438 
f 76/37/439 77/38/440 93/43/441 
f 93/43/442 92/42/443 76/37/444 
f 77/38/445 78/39/446 94/44/447 
f 94/44/448 93/43/449 77/38/450 
f 78/39/451 79/40/452 95/45/453 
f 95/45/454 94/44/455 78/39/456 
f 91/41/457 92/42/458 49/47/459 
f 49/47/460 50/46/461 91/41/462 
f 92/42/463 93/43/464 48/48/465 
f 48/48/466 49/47/467 92/42/468 
f 93/43/469 94/44/470 47/49/471 
f 47/49/472 48/48/473 93/43/474 
f 94/44/475 95/45/476 46/50/477 
f 46/50/478 47/49/479 94/44/480 
f 21/1/481 16/2/482 64/7/483 
f 64/7/484 63/6/485 21/1/486 
f 16/2/487 11/3/488 65/8/489 
f 65/8/490 64/7/491 16/2/492 
f 11/3/493 6/4/494 66/9/495 
f 66/9/496 65/8/497 11/3/498 
f 6/4/499 1/5/500 51/10/501 
f 51/10/502 66/9/503 6/4/504 
f 63/6/505 64/7/506 80/12/507 
f 80/12/508 79/11/509 63/6/510 
f 64/7/511 65/8/512 81/13/513 
f 81/13/514 80/12/515 64/7/516 
f 65/8/517 66/9/518 82/14/519 
f 82/14/520 81/13/521 65/8/522 
f 66/9/523 51/10/524 67/15/525 
f 67/15/526 82/14/527 66/9/528 
f 79/11/529 80/12/530 96/17/531 
f 96/17/532 95/16/533 79/11/534 
f 80/12/535 81/13/536 97/18/537 
f 97/18/538 96/17/539 80/12/540 
f 81/13/541 82/14/542 98/19/543 
f 98/19/544 97/18/545 81/13/546 
f 82/14/547 67/15/548 83/20/549 
f 83/20/550 98/19/551 82/14/552 
f 95/16/553 96/17/554 41/22/555 
f 41/22/556 46/21/557 95/16/558 
f 96/17/559 97/18/560 36/23/561 
f 36/23/562 41/22/563 96/17/564 
f 97/18/565 98/19/566 31/24/567 
f 31/24/568 36/23/569 97/18/570 
f 98/19/571 83/20/572 26/25/573 
f 26/25/574 31/24/575 98/19/576 
# 192 faces

